2
-1.0    0.5     0.0     450
-1.0    0.5     450     20000
0.5     0.82    0.0     500
0.5     0.82    500     800
0.5     0.82    800     20000
0.82    0.93    0.0     550
0.82    0.93    550     700
0.82    0.93    700     1000
0.82    0.93    1000    20000
0.93    1.0     0.0     800
0.93    1.0     800     1500
0.93    1.0     1500    3000
0.93    1.0     3000    20000
